digraph "serializable"
{
 // LATEX_PDF_SIZE
  bgcolor="transparent";
  edge [fontname=Helvetica,fontsize=10,labelfontname=Helvetica,labelfontsize=10];
  node [fontname=Helvetica,fontsize=10,shape=box,height=0.2,width=0.4];
  rankdir="LR";
  Node1 [id="Node000001",label="serializable",height=0.2,width=0.4,color="gray40", fillcolor="grey60", style="filled", fontcolor="black",tooltip=" "];
  Node1 -> Node2 [id="edge1_Node000001_Node000002",dir="back",color="steelblue1",style="solid",tooltip=" "];
  Node2 [id="Node000002",label="serializable_value\l\< int \>",height=0.2,width=0.4,color="grey75", fillcolor="white", style="filled",URL="$classserializable__value.html",tooltip=" "];
  Node1 -> Node3 [id="edge2_Node000001_Node000003",dir="back",color="steelblue1",style="solid",tooltip=" "];
  Node3 [id="Node000003",label="serializable_value\l\< bool \>",height=0.2,width=0.4,color="grey75", fillcolor="white", style="filled",URL="$classserializable__value.html",tooltip=" "];
  Node1 -> Node4 [id="edge3_Node000001_Node000004",dir="back",color="steelblue1",style="solid",tooltip=" "];
  Node4 [id="Node000004",label="serializable_value\l\< std::string \>",height=0.2,width=0.4,color="grey75", fillcolor="white", style="filled",URL="$classserializable__value.html",tooltip=" "];
  Node1 -> Node5 [id="edge4_Node000001_Node000005",dir="back",color="steelblue1",style="solid",tooltip=" "];
  Node5 [id="Node000005",label="client_request",height=0.2,width=0.4,color="grey75", fillcolor="white", style="filled",URL="$classclient__request.html",tooltip=" "];
  Node5 -> Node6 [id="edge5_Node000005_Node000006",dir="back",color="steelblue1",style="solid",tooltip=" "];
  Node6 [id="Node000006",label="call_uno_request",height=0.2,width=0.4,color="grey75", fillcolor="white", style="filled",URL="$classcall__uno__request.html",tooltip=" "];
  Node5 -> Node7 [id="edge6_Node000005_Node000007",dir="back",color="steelblue1",style="solid",tooltip=" "];
  Node7 [id="Node000007",label="draw_card_request",height=0.2,width=0.4,color="grey75", fillcolor="white", style="filled",URL="$classdraw__card__request.html",tooltip=" "];
  Node5 -> Node8 [id="edge7_Node000005_Node000008",dir="back",color="steelblue1",style="solid",tooltip=" "];
  Node8 [id="Node000008",label="join_game_request",height=0.2,width=0.4,color="grey75", fillcolor="white", style="filled",URL="$classjoin__game__request.html",tooltip=" "];
  Node5 -> Node9 [id="edge8_Node000005_Node000009",dir="back",color="steelblue1",style="solid",tooltip=" "];
  Node9 [id="Node000009",label="new_round_request",height=0.2,width=0.4,color="grey75", fillcolor="white", style="filled",URL="$classnew__round__request.html",tooltip=" "];
  Node5 -> Node10 [id="edge9_Node000005_Node000010",dir="back",color="steelblue1",style="solid",tooltip=" "];
  Node10 [id="Node000010",label="pick_a_color_request",height=0.2,width=0.4,color="grey75", fillcolor="white", style="filled",URL="$classpick__a__color__request.html",tooltip=" "];
  Node5 -> Node11 [id="edge10_Node000005_Node000011",dir="back",color="steelblue1",style="solid",tooltip=" "];
  Node11 [id="Node000011",label="play_card_request",height=0.2,width=0.4,color="grey75", fillcolor="white", style="filled",URL="$classplay__card__request.html",tooltip=" "];
  Node5 -> Node12 [id="edge11_Node000005_Node000012",dir="back",color="steelblue1",style="solid",tooltip=" "];
  Node12 [id="Node000012",label="player_left_request",height=0.2,width=0.4,color="grey75", fillcolor="white", style="filled",URL="$classplayer__left__request.html",tooltip=" "];
  Node5 -> Node13 [id="edge12_Node000005_Node000013",dir="back",color="steelblue1",style="solid",tooltip=" "];
  Node13 [id="Node000013",label="start_game_request",height=0.2,width=0.4,color="grey75", fillcolor="white", style="filled",URL="$classstart__game__request.html",tooltip=" "];
  Node1 -> Node14 [id="edge13_Node000001_Node000014",dir="back",color="steelblue1",style="solid",tooltip=" "];
  Node14 [id="Node000014",label="serializable_value\< T \>",height=0.2,width=0.4,color="grey75", fillcolor="white", style="filled",URL="$classserializable__value.html",tooltip=" "];
  Node1 -> Node15 [id="edge14_Node000001_Node000015",dir="back",color="steelblue1",style="solid",tooltip=" "];
  Node15 [id="Node000015",label="server_response",height=0.2,width=0.4,color="grey75", fillcolor="white", style="filled",URL="$classserver__response.html",tooltip=" "];
  Node15 -> Node16 [id="edge15_Node000015_Node000016",dir="back",color="steelblue1",style="solid",tooltip=" "];
  Node16 [id="Node000016",label="full_state_response",height=0.2,width=0.4,color="grey75", fillcolor="white", style="filled",URL="$classfull__state__response.html",tooltip=" "];
  Node15 -> Node17 [id="edge16_Node000015_Node000017",dir="back",color="steelblue1",style="solid",tooltip=" "];
  Node17 [id="Node000017",label="request_response",height=0.2,width=0.4,color="grey75", fillcolor="white", style="filled",URL="$classrequest__response.html",tooltip=" "];
  Node1 -> Node18 [id="edge17_Node000001_Node000018",dir="back",color="steelblue1",style="solid",tooltip=" "];
  Node18 [id="Node000018",label="unique_serializable",height=0.2,width=0.4,color="grey75", fillcolor="white", style="filled",URL="$classunique__serializable.html",tooltip=" "];
  Node18 -> Node19 [id="edge18_Node000018_Node000019",dir="back",color="steelblue1",style="solid",tooltip=" "];
  Node19 [id="Node000019",label="card",height=0.2,width=0.4,color="grey75", fillcolor="white", style="filled",URL="$classcard.html",tooltip=" "];
  Node18 -> Node20 [id="edge19_Node000018_Node000020",dir="back",color="steelblue1",style="solid",tooltip=" "];
  Node20 [id="Node000020",label="discard_pile",height=0.2,width=0.4,color="grey75", fillcolor="white", style="filled",URL="$classdiscard__pile.html",tooltip=" "];
  Node18 -> Node21 [id="edge20_Node000018_Node000021",dir="back",color="steelblue1",style="solid",tooltip=" "];
  Node21 [id="Node000021",label="draw_pile",height=0.2,width=0.4,color="grey75", fillcolor="white", style="filled",URL="$classdraw__pile.html",tooltip=" "];
  Node18 -> Node22 [id="edge21_Node000018_Node000022",dir="back",color="steelblue1",style="solid",tooltip=" "];
  Node22 [id="Node000022",label="game_state",height=0.2,width=0.4,color="grey75", fillcolor="white", style="filled",URL="$classgame__state.html",tooltip=" "];
  Node18 -> Node23 [id="edge22_Node000018_Node000023",dir="back",color="steelblue1",style="solid",tooltip=" "];
  Node23 [id="Node000023",label="hand",height=0.2,width=0.4,color="grey75", fillcolor="white", style="filled",URL="$classhand.html",tooltip=" "];
  Node18 -> Node24 [id="edge23_Node000018_Node000024",dir="back",color="steelblue1",style="solid",tooltip=" "];
  Node24 [id="Node000024",label="player",height=0.2,width=0.4,color="grey75", fillcolor="white", style="filled",URL="$classplayer.html",tooltip=" "];
}
