digraph "play_card_request"
{
 // LATEX_PDF_SIZE
  bgcolor="transparent";
  edge [fontname=Helvetica,fontsize=10,labelfontname=Helvetica,labelfontsize=10];
  node [fontname=Helvetica,fontsize=10,shape=box,height=0.2,width=0.4];
  Node1 [id="Node000001",label="play_card_request",height=0.2,width=0.4,color="gray40", fillcolor="grey60", style="filled", fontcolor="black",tooltip=" "];
  Node2 -> Node1 [id="edge1_Node000001_Node000002",dir="back",color="steelblue1",style="solid",tooltip=" "];
  Node2 [id="Node000002",label="client_request",height=0.2,width=0.4,color="grey75", fillcolor="white", style="filled",URL="$classclient__request.html",tooltip=" "];
  Node3 -> Node2 [id="edge2_Node000002_Node000003",dir="back",color="steelblue1",style="solid",tooltip=" "];
  Node3 [id="Node000003",label="serializable",height=0.2,width=0.4,color="grey75", fillcolor="white", style="filled",URL="$classserializable.html",tooltip=" "];
}
