digraph "/Users/michaelklein/Documents/unorganized/src/common/game_state"
{
 // LATEX_PDF_SIZE
  bgcolor="transparent";
  edge [fontname=Helvetica,fontsize=10,labelfontname=Helvetica,labelfontsize=10];
  node [fontname=Helvetica,fontsize=10,shape=box,height=0.2,width=0.4];
  compound=true
  subgraph clusterdir_fdedb0aba14d44ce9d99bc100e026e6a {
    graph [ bgcolor="#edf0f7", pencolor="grey50", label="common", fontname=Helvetica,fontsize=10 style="filled,dashed", URL="dir_fdedb0aba14d44ce9d99bc100e026e6a.html",tooltip=""]
  subgraph clusterdir_5ca9256e394d76a5c0874f18b1fb2558 {
    graph [ bgcolor="#edf0f7", pencolor="grey25", label="", fontname=Helvetica,fontsize=10 style="filled,bold", URL="dir_5ca9256e394d76a5c0874f18b1fb2558.html",tooltip=""]
    dir_5ca9256e394d76a5c0874f18b1fb2558 [shape=plaintext, label="game_state"];
  dir_7ce8878d8d9ef1ddcddc7bbf714c2584 [label="cards", fillcolor="#a2b4d6", color="grey25", style="filled", URL="dir_7ce8878d8d9ef1ddcddc7bbf714c2584.html",tooltip=""];
  dir_f7c29f94eebf60bb5797bfb1cb5f06bb [label="player", fillcolor="#a2b4d6", color="grey25", style="filled", URL="dir_f7c29f94eebf60bb5797bfb1cb5f06bb.html",tooltip=""];
  }
  }
}
